<?xml version="1.0" encoding="UTF-8" standalone="no"?>
<svg
   xmlns:dc="http://purl.org/dc/elements/1.1/"
   xmlns:cc="http://creativecommons.org/ns#"
   xmlns:rdf="http://www.w3.org/1999/02/22-rdf-syntax-ns#"
   xmlns:svg="http://www.w3.org/2000/svg"
   xmlns="http://www.w3.org/2000/svg"
   xmlns:xlink="http://www.w3.org/1999/xlink"
   xmlns:sodipodi="http://sodipodi.sourceforge.net/DTD/sodipodi-0.dtd"
   xmlns:inkscape="http://www.inkscape.org/namespaces/inkscape"
   id="svg1401"
   version="1.1"
   viewBox="0 0 710.00001 1010.004"
   height="101.0004cm"
   width="71cm"
   sodipodi:docname="2019-print-sonoj-alu-dibond-700x1000.svg"
   inkscape:version="0.92.4 5da689c313, 2019-01-14">
  <title
     id="title1127">Sonoj Convention Banner</title>
  <sodipodi:namedview
     pagecolor="#ffffff"
     bordercolor="#666666"
     borderopacity="1"
     objecttolerance="10"
     gridtolerance="10"
     guidetolerance="10"
     inkscape:pageopacity="0"
     inkscape:pageshadow="2"
     inkscape:window-width="1918"
     inkscape:window-height="1066"
     id="namedview1073"
     showgrid="false"
     inkscape:zoom="0.050104685"
     inkscape:cx="5499.8"
     inkscape:cy="2651.0391"
     inkscape:window-x="1920"
     inkscape:window-y="1068"
     inkscape:window-maximized="1"
     inkscape:current-layer="svg1401"
     fit-margin-left="0.5"
     units="cm"
     fit-margin-right="0.5"
     fit-margin-top="0.5"
     fit-margin-bottom="0.5" />
  <defs
     id="defs1395">
    <color-profile
       name="ISO-Coated-v2-300---ECI-"
       xlink:href="/usr/share/color/icc/ISOcoated_v2_300_eci.icc"
       id="color-profile4589" />
  </defs>
  <metadata
     id="metadata1398">
    <rdf:RDF>
      <cc:Work
         rdf:about="">
        <dc:format>image/svg+xml</dc:format>
        <dc:type
           rdf:resource="http://purl.org/dc/dcmitype/StillImage" />
        <dc:title>Sonoj Convention Banner</dc:title>
      </cc:Work>
    </rdf:RDF>
  </metadata>
  <g
     id="layer2"
     transform="translate(5.0000001,-595.00001)" />
  <path
     style="fill:#000000;fill-opacity:1;stroke:none;stroke-width:0.43884879"
     d="m 704.96891,941.83731 h -4.2766 l -8.64989,8.6454 9.76699,9.7669 v 41.58929 H 660.3478 l -9.76712,-9.76699 -8.64531,8.64989 v 4.2767 l 8.62525,-8.62969 8.5118,8.62519 45.92759,0.01 -0.0359,-46.02525 -8.62437,-8.5118 8.63032,-8.6252 v 0 z m -6.21927,56.8648 0.0902,-37.1245 -19.72453,-19.7403 h -4.20158 l 8.57692,8.5769 -8.56459,8.5602 v 15.9818 H 659.0718 l -8.56013,8.5646 -8.57692,-8.577 v 4.2016 l 19.74039,19.7246 z m -2.36992,-56.8648 h -12.98373 l 6.49184,6.4919 z m -8.58144,12.8851 -6.6993,6.6981 -0.0483,19.6473 -19.53317,0.062 -6.69819,6.6994 -2.14914,-2.149 7.67627,-7.6774 h 17.51203 l 0.11348,-17.7528 7.67738,-7.6764 z m -39.37212,35.196 -6.49191,-6.4919 v 12.9838 z"
     id="path3807"
     inkscape:connector-curvature="0" />
  <path
     style="fill:#000000;fill-opacity:1;stroke:none;stroke-width:0.43884879"
     d="m 641.83831,5.0311001 v 4.2766 l 8.64536,8.6499009 9.76698,-9.7670009 H 701.8399 V 49.652201 l -9.76698,9.7671 8.64989,8.6453 h 4.27668 l -8.62967,-8.6252 8.62519,-8.5118 0.005,-45.9276009 -46.02524,0.036 -8.51185,8.6243999 -8.62515,-8.6302999 h 10e-4 z m 56.86483,6.2192999 -37.12454,-0.09 -19.74029,19.724501 v 4.2016 l 8.57695,-8.5769 8.5601,8.5646 h 15.9818 v 15.8542 l 8.56463,8.5601 -8.57696,8.577 h 4.20155 l 19.72462,-19.7404 z m -56.86483,2.3699 v 12.983701 l 6.49183,-6.4918 z m 12.88504,8.581401 6.69823,6.6993 19.64726,0.048 0.0617,19.5332 6.69938,6.6982 -2.149,2.1491 -7.67741,-7.6762 v -17.512 l -17.75283,-0.1135 -7.6763,-7.6774 z m 35.1961,39.3722 -6.49188,6.4919 h 12.98372 z"
     id="path1531"
     inkscape:connector-curvature="0" />
  <path
     id="path1579"
     d="m 5.0311001,941.83731 h 4.2766 l 8.6498899,8.6454 -9.7669899,9.7669 v 41.58929 H 49.65221 l 9.76712,-9.76699 8.64531,8.64989 v 4.2767 l -8.62525,-8.62969 -8.5118,8.62519 -45.9275899,0.01 0.0359,-46.02529 8.6243699,-8.5118 -8.6303199,-8.6252 v 0 z m 6.2192699,56.8648 -0.0902,-37.1245 19.72453,-19.7403 h 4.20158 l -8.57692,8.5769 8.56459,8.5602 v 15.9818 h 15.85426 l 8.56013,8.5646 8.57692,-8.577 v 4.2016 l -19.74039,19.7246 z m 2.36992,-56.8648 h 12.98373 l -6.49184,6.4919 z m 8.58144,12.8851 6.6993,6.6981 0.0483,19.6473 19.53317,0.062 6.69819,6.6994 2.14914,-2.149 -7.67627,-7.6774 H 32.14153 l -0.11348,-17.7528 -7.67738,-7.6764 z m 39.37212,35.196 6.49191,-6.4919 v 12.9838 z"
     style="fill:#000000;fill-opacity:1;stroke:none;stroke-width:0.43884879"
     inkscape:connector-curvature="0" />
  <path
     id="path1581"
     d="m 68.1617,5.0311001 v 4.2766 L 59.51634,17.957601 49.74936,8.1906001 H 8.1601101 V 49.652201 l 9.7669799,9.7671 -8.6498899,8.6453 h -4.27668 l 8.6296699,-8.6252 -8.6251899,-8.5118 -0.005,-45.9276009 46.0252399,0.036 8.51185,8.6243999 8.62515,-8.6302999 h -10e-4 z M 11.29687,11.2504 48.42141,11.1604 68.1617,30.884901 v 4.2016 l -8.57695,-8.5769 -8.5601,8.5646 h -15.9818 v 15.8542 l -8.56463,8.5601 8.57696,8.577 h -4.20155 l -19.72462,-19.7404 z m 56.86483,2.3699 v 12.983701 l -6.49183,-6.4918 z m -12.88504,8.581401 -6.69823,6.6993 -19.64726,0.048 -0.0617,19.5332 -6.69938,6.6982 2.149,2.1491 7.67741,-7.6762 v -17.512 l 17.75283,-0.1135 7.6763,-7.6774 z m -35.1961,39.3722 6.49188,6.4919 H 13.58872 Z"
     style="fill:#000000;fill-opacity:1;stroke:none;stroke-width:0.43884879"
     inkscape:connector-curvature="0" />
  <path
     style="fill:#000000;fill-opacity:1;stroke-width:2.96747518"
     d="m 641.92357,974.94481 v 4.2016 H 68.063486 v -4.2016 z"
     id="rect1599"
     inkscape:connector-curvature="0" />
  <path
     style="fill:#000000;fill-opacity:1;stroke-width:5.2165308"
     d="m 641.92357,983.42711 v 12.9838 H 68.061859 v -12.9838 z"
     id="rect1601"
     inkscape:connector-curvature="0" />
  <path
     style="fill:#000000;fill-opacity:1;stroke-width:2.99384403"
     d="M 641.92357,1000.7234 V 1005 H 68.062673 v -4.2766 z"
     id="rect1603"
     inkscape:connector-curvature="0" />
  <path
     id="path911"
     d="m 704.96891,941.83731 h -4.2766 l -8.64989,8.6454 9.76699,9.7669 v 41.58929 H 660.3478 l -9.76712,-9.76699 -8.64531,8.64989 v 4.2767 l 8.62525,-8.62969 8.5118,8.62519 45.92759,0.01 -0.0359,-46.02525 -8.62437,-8.5118 8.63032,-8.6252 v 0 z m -6.21927,56.8648 0.0902,-37.1245 -19.72453,-19.7403 h -4.20158 l 8.57692,8.5769 -8.56459,8.5602 v 15.9818 H 659.0718 l -8.56013,8.5646 -8.57692,-8.577 v 4.2016 l 19.74039,19.7246 z m -2.36992,-56.8648 h -12.98373 l 6.49184,6.4919 z m -8.58144,12.8851 -6.6993,6.6981 -0.0483,19.6473 -19.53317,0.062 -6.69819,6.6994 -2.14914,-2.149 7.67627,-7.6774 h 17.51203 l 0.11348,-17.7528 7.67738,-7.6764 z m -39.37212,35.196 -6.49191,-6.4919 v 12.9838 z"
     style="fill:#000000;fill-opacity:1;stroke:none;stroke-width:0.43884879"
     inkscape:connector-curvature="0" />
  <path
     id="path913"
     d="m 641.83831,5.0311001 v 4.2766 l 8.64536,8.6499009 9.76698,-9.7670009 H 701.8399 V 49.652201 l -9.76698,9.7671 8.64989,8.6453 h 4.27668 l -8.62967,-8.6252 8.62519,-8.5118 0.005,-45.9276009 -46.02524,0.036 -8.51185,8.6243999 -8.62515,-8.6302999 h 10e-4 z m 56.86483,6.2192999 -37.12454,-0.09 -19.74029,19.724501 v 4.2016 l 8.57695,-8.5769 8.5601,8.5646 h 15.9818 v 15.8542 l 8.56463,8.5601 -8.57696,8.577 h 4.20155 l 19.72462,-19.7404 z m -56.86483,2.3699 v 12.983701 l 6.49183,-6.4918 z m 12.88504,8.581401 6.69823,6.6993 19.64726,0.048 0.0617,19.5332 6.69938,6.6982 -2.149,2.1491 -7.67741,-7.6762 v -17.512 l -17.75283,-0.1135 -7.6763,-7.6774 z m 35.1961,39.3722 -6.49188,6.4919 h 12.98372 z"
     style="fill:#000000;fill-opacity:1;stroke:none;stroke-width:0.43884879"
     inkscape:connector-curvature="0" />
  <path
     style="fill:#000000;fill-opacity:1;stroke:none;stroke-width:0.43884879"
     d="m 5.0311001,941.83731 h 4.2766 l 8.6498899,8.6454 -9.7669899,9.7669 v 41.58929 H 49.65221 l 9.76712,-9.76699 8.64531,8.64989 v 4.2767 l -8.62525,-8.62969 -8.5118,8.62519 -45.9275899,0.01 0.0359,-46.02529 8.6243699,-8.5118 -8.6303199,-8.6252 v 0 z m 6.2192699,56.8648 -0.0902,-37.1245 19.72453,-19.7403 h 4.20158 l -8.57692,8.5769 8.56459,8.5602 v 15.9818 h 15.85426 l 8.56013,8.5646 8.57692,-8.577 v 4.2016 l -19.74039,19.7246 z m 2.36992,-56.8648 h 12.98373 l -6.49184,6.4919 z m 8.58144,12.8851 6.6993,6.6981 0.0483,19.6473 19.53317,0.062 6.69819,6.6994 2.14914,-2.149 -7.67627,-7.6774 H 32.14153 l -0.11348,-17.7528 -7.67738,-7.6764 z m 39.37212,35.196 6.49191,-6.4919 v 12.9838 z"
     id="path923"
     inkscape:connector-curvature="0" />
  <path
     style="fill:#000000;fill-opacity:1;stroke:none;stroke-width:0.43884879"
     d="m 68.1617,5.0311001 v 4.2766 L 59.51634,17.957601 49.74936,8.1906001 H 8.1601101 V 49.652201 l 9.7669799,9.7671 -8.6498899,8.6453 h -4.27668 l 8.6296699,-8.6252 -8.6251899,-8.5118 -0.005,-45.9276009 46.0252399,0.036 8.51185,8.6243999 8.62515,-8.6302999 h -10e-4 z M 11.29687,11.2504 48.42141,11.1604 68.1617,30.884901 v 4.2016 l -8.57695,-8.5769 -8.5601,8.5646 h -15.9818 v 15.8542 l -8.56463,8.5601 8.57696,8.577 h -4.20155 l -19.72462,-19.7404 z m 56.86483,2.3699 v 12.983701 l -6.49183,-6.4918 z m -12.88504,8.581401 -6.69823,6.6993 -19.64726,0.048 -0.0617,19.5332 -6.69938,6.6982 2.149,2.1491 7.67741,-7.6762 v -17.512 l 17.75283,-0.1135 7.6763,-7.6774 z m -35.1961,39.3722 6.49188,6.4919 H 13.58872 Z"
     id="path925"
     inkscape:connector-curvature="0" />
  <path
     style="fill:#000000;fill-opacity:1;stroke-width:2.96747518"
     d="m 641.92357,974.94481 v 4.2016 H 68.063486 v -4.2016 z"
     id="rect935"
     inkscape:connector-curvature="0" />
  <path
     style="fill:#000000;fill-opacity:1;stroke-width:5.2165308"
     d="m 641.92357,983.42711 v 12.9838 H 68.061859 v -12.9838 z"
     id="rect937"
     inkscape:connector-curvature="0" />
  <path
     style="fill:#000000;fill-opacity:1;stroke-width:2.99384403"
     d="M 641.92357,1000.7234 V 1005 H 68.062673 v -4.2766 z"
     id="rect939"
     inkscape:connector-curvature="0" />
  <path
     style="fill:#000000;fill-opacity:1;stroke:none;stroke-width:0.43884879"
     d="m 704.96891,941.83731 h -4.2766 l -8.64989,8.6454 9.76699,9.7669 v 41.58929 H 660.3478 l -9.76712,-9.76699 -8.64531,8.64989 v 4.2767 l 8.62525,-8.62969 8.5118,8.62519 45.92759,0.01 -0.0359,-46.02525 -8.62437,-8.5118 8.63032,-8.6252 v 0 z m -6.21927,56.8648 0.0902,-37.1245 -19.72453,-19.7403 h -4.20158 l 8.57692,8.5769 -8.56459,8.5602 v 15.9818 H 659.0718 l -8.56013,8.5646 -8.57692,-8.577 v 4.2016 l 19.74039,19.7246 z m -2.36992,-56.8648 h -12.98373 l 6.49184,6.4919 z m -8.58144,12.8851 -6.6993,6.6981 -0.0483,19.6473 -19.53317,0.062 -6.69819,6.6994 -2.14914,-2.149 7.67627,-7.6774 h 17.51203 l 0.11348,-17.7528 7.67738,-7.6764 z m -39.37212,35.196 -6.49191,-6.4919 v 12.9838 z"
     id="path953"
     inkscape:connector-curvature="0" />
  <path
     style="fill:#000000;fill-opacity:1;stroke:none;stroke-width:0.43884879"
     d="m 641.83831,5.0311001 v 4.2766 l 8.64536,8.6499009 9.76698,-9.7670009 H 701.8399 V 49.652201 l -9.76698,9.7671 8.64989,8.6453 h 4.27668 l -8.62967,-8.6252 8.62519,-8.5118 0.005,-45.9276009 -46.02524,0.036 -8.51185,8.6243999 -8.62515,-8.6302999 h 10e-4 z m 56.86483,6.2192999 -37.12454,-0.09 -19.74029,19.724501 v 4.2016 l 8.57695,-8.5769 8.5601,8.5646 h 15.9818 v 15.8542 l 8.56463,8.5601 -8.57696,8.577 h 4.20155 l 19.72462,-19.7404 z m -56.86483,2.3699 v 12.983701 l 6.49183,-6.4918 z m 12.88504,8.581401 6.69823,6.6993 19.64726,0.048 0.0617,19.5332 6.69938,6.6982 -2.149,2.1491 -7.67741,-7.6762 v -17.512 l -17.75283,-0.1135 -7.6763,-7.6774 z m 35.1961,39.3722 -6.49188,6.4919 h 12.98372 z"
     id="path955"
     inkscape:connector-curvature="0" />
  <path
     style="fill:#000000;fill-opacity:1;stroke-width:3.66176295"
     d="m 5.0000001,68.037951 h 4.20158 V 941.83852 h -4.20158 z"
     id="rect1546"
     inkscape:connector-curvature="0" />
  <path
     style="fill:#000000;fill-opacity:1;stroke-width:6.4370203"
     d="M 13.48224,68.037951 H 26.46602 V 941.84102 H 13.48224 Z"
     id="rect1548"
     inkscape:connector-curvature="0" />
  <path
     style="fill:#000000;fill-opacity:1;stroke-width:3.69430137"
     d="M 30.77862,68.037951 H 35.0552 V 941.83982 h -4.27658 z"
     id="rect1550"
     inkscape:connector-curvature="0" />
  <path
     style="fill:#000000;fill-opacity:1;stroke-width:3.66176295"
     d="m 5.0000001,68.037951 h 4.20158 V 941.83852 h -4.20158 z"
     id="rect915"
     inkscape:connector-curvature="0" />
  <path
     style="fill:#000000;fill-opacity:1;stroke-width:6.4370203"
     d="M 13.48224,68.037951 H 26.46602 V 941.84102 H 13.48224 Z"
     id="rect917"
     inkscape:connector-curvature="0" />
  <path
     style="fill:#000000;fill-opacity:1;stroke-width:3.69430137"
     d="M 30.77862,68.037951 H 35.0552 V 941.83982 h -4.27658 z"
     id="rect919"
     inkscape:connector-curvature="0" />
  <path
     style="fill:#000000;fill-opacity:1;stroke-width:3.66176295"
     d="m 5.0000001,68.037951 h 4.20158 V 941.83852 h -4.20158 z"
     id="rect957"
     inkscape:connector-curvature="0" />
  <path
     style="fill:#000000;fill-opacity:1;stroke-width:6.4370203"
     d="M 13.48224,68.037951 H 26.46602 V 941.84102 H 13.48224 Z"
     id="rect959"
     inkscape:connector-curvature="0" />
  <path
     style="fill:#000000;fill-opacity:1;stroke-width:3.69430137"
     d="M 30.77862,68.037951 H 35.0552 V 941.83982 h -4.27658 z"
     id="rect961"
     inkscape:connector-curvature="0" />
  <path
     id="path965"
     d="m 5.0311001,941.83731 h 4.2766 l 8.6498899,8.6454 -9.7669899,9.7669 v 41.58929 H 49.65221 l 9.76712,-9.76699 8.64531,8.64989 v 4.2767 l -8.62525,-8.62969 -8.5118,8.62519 -45.9275899,0.01 0.0359,-46.02529 8.6243699,-8.5118 -8.6303199,-8.6252 v 0 z m 6.2192699,56.8648 -0.0902,-37.1245 19.72453,-19.7403 h 4.20158 l -8.57692,8.5769 8.56459,8.5602 v 15.9818 h 15.85426 l 8.56013,8.5646 8.57692,-8.577 v 4.2016 l -19.74039,19.7246 z m 2.36992,-56.8648 h 12.98373 l -6.49184,6.4919 z m 8.58144,12.8851 6.6993,6.6981 0.0483,19.6473 19.53317,0.062 6.69819,6.6994 2.14914,-2.149 -7.67627,-7.6774 H 32.14153 l -0.11348,-17.7528 -7.67738,-7.6764 z m 39.37212,35.196 6.49191,-6.4919 v 12.9838 z"
     style="fill:#000000;fill-opacity:1;stroke:none;stroke-width:0.43884879"
     inkscape:connector-curvature="0" />
  <path
     id="path967"
     d="m 68.1617,5.0311001 v 4.2766 L 59.51634,17.957601 49.74936,8.1906001 H 8.1601101 V 49.652201 l 9.7669799,9.7671 -8.6498899,8.6453 h -4.27668 l 8.6296699,-8.6252 -8.6251899,-8.5118 -0.005,-45.9276009 46.0252399,0.036 8.51185,8.6243999 8.62515,-8.6302999 h -10e-4 z M 11.29687,11.2504 48.42141,11.1604 68.1617,30.884901 v 4.2016 l -8.57695,-8.5769 -8.5601,8.5646 h -15.9818 v 15.8542 l -8.56463,8.5601 8.57696,8.577 h -4.20155 l -19.72462,-19.7404 z m 56.86483,2.3699 v 12.983701 l -6.49183,-6.4918 z m -12.88504,8.581401 -6.69823,6.6993 -19.64726,0.048 -0.0617,19.5332 -6.69938,6.6982 2.149,2.1491 7.67741,-7.6762 v -17.512 l 17.75283,-0.1135 7.6763,-7.6774 z m -35.1961,39.3722 6.49188,6.4919 H 13.58872 Z"
     style="fill:#000000;fill-opacity:1;stroke:none;stroke-width:0.43884879"
     inkscape:connector-curvature="0" />
  <path
     style="fill:#000000;fill-opacity:1;stroke-width:2.96747518"
     d="m 641.92357,974.94481 v 4.2016 H 68.063486 v -4.2016 z"
     id="rect977"
     inkscape:connector-curvature="0" />
  <path
     style="fill:#000000;fill-opacity:1;stroke-width:5.2165308"
     d="m 641.92357,983.42711 v 12.9838 H 68.061859 v -12.9838 z"
     id="rect979"
     inkscape:connector-curvature="0" />
  <path
     style="fill:#000000;fill-opacity:1;stroke-width:2.99384403"
     d="M 641.92357,1000.7234 V 1005 H 68.062673 v -4.2766 z"
     id="rect981"
     inkscape:connector-curvature="0" />
  <path
     d="m 137.41806,802.41622 c -4.22987,0 -7.53957,1.47338 -10.11328,4.42036 -2.39067,2.9469 -3.67817,6.078 -3.67817,9.39334 v 69.9893 c 0,2.9469 1.10383,6.078 3.49358,9.2091 2.39046,3.1311 5.70041,4.6045 10.29787,4.6045 h 13.79056 c 3.86232,0 6.98835,-1.2893 9.74657,-4.052 2.75735,-2.7627 4.04511,-5.8939 4.04511,-9.7616 v -14.1821 h -13.79168 v 9.9459 c 0,1.2892 -0.364,2.3943 -1.4705,3.3153 -0.73717,0.9209 -1.83923,1.2892 -3.12603,1.2892 h -4.5975 c -1.2868,0 -2.20586,-0.3682 -3.3097,-1.2892 -0.73713,-0.921 -1.28683,-2.0261 -1.28683,-3.3153 v -60.9645 c 0,-1.6576 0.55506,-2.7627 1.83831,-3.4994 1.28772,-0.7365 2.20675,-1.1051 2.75822,-1.1051 h 4.5975 c 1.2868,0 2.39064,0.3682 3.30992,1.2893 0.91902,0.9209 1.28661,2.0259 1.28661,3.3152 v 9.3934 h 13.79168 v -14.1821 c 0,-3.86784 -1.28776,-6.99891 -4.04511,-9.76165 -2.75822,-2.76274 -5.88425,-4.05199 -9.74657,-4.05199 z"
     style="font-style:normal;font-variant:normal;font-weight:normal;font-stretch:normal;font-size:medium;line-height:1.25;font-family:'Sturkopf Grotesk';-inkscape-font-specification:'Sturkopf Grotesk';letter-spacing:0px;word-spacing:0px;fill:#000000;fill-opacity:1;stroke:none;stroke-width:4.60079861"
     id="path875"
     inkscape:connector-curvature="0" />
  <path
     d="m 188.59197,802.41622 c -3.86206,0 -6.98812,1.28953 -9.74635,4.05287 -2.57367,2.57906 -3.86139,5.71095 -3.86139,9.21111 v 70.55722 c 0,3.5002 1.28772,6.8162 3.6775,9.5796 2.57456,2.7633 5.88426,4.2371 9.93024,4.2371 h 13.60694 c 3.86118,0 6.98721,-1.2895 9.74546,-4.0528 2.75823,-2.7634 4.04596,-5.8952 4.04596,-9.7639 v -70.55725 c 0,-3.50016 -1.28773,-6.44778 -3.86207,-9.21112 -2.39067,-2.76334 -5.70041,-4.05287 -9.92935,-4.05287 z m 4.59657,13.8167 h 4.59743 c 1.28687,0 2.20594,0.3683 3.12607,1.2895 0.91903,0.9211 1.28687,2.0265 1.28687,3.316 v 61.3461 c 0,1.2896 -0.36404,2.2107 -1.28687,3.1318 -0.92013,0.9211 -1.8392,1.4737 -3.12607,1.4737 h -4.59743 c -1.10294,0 -2.20678,-0.5525 -3.12602,-1.4737 -0.91907,-0.9211 -1.28663,-1.8422 -1.28663,-3.1318 v -61.3461 c 0,-1.1054 0.36401,-2.2106 1.10296,-3.1317 0.91903,-0.9211 2.02287,-1.4738 3.30969,-1.4738 z"
     style="font-style:normal;font-variant:normal;font-weight:normal;font-stretch:normal;font-size:medium;line-height:1.25;font-family:'Sturkopf Grotesk';-inkscape-font-specification:'Sturkopf Grotesk';letter-spacing:0px;word-spacing:0px;fill:#000000;fill-opacity:1;stroke:none;stroke-width:4.60129929"
     id="path877"
     inkscape:connector-curvature="0" />
  <path
     d="m 226.70962,803.72049 v 96.33493 h 13.79167 v -79.1921 c -0.18254,-0.9317 0.18253,-1.8634 0.91903,-2.795 0.91932,-1.118 2.02222,-1.677 3.49362,-1.677 h 4.59657 c 0.92017,0 2.02312,0.3725 2.94215,1.3043 0.92013,0.7451 1.4716,1.8634 1.4716,3.1677 v 79.1921 h 13.7906 v -83.8505 c 0,-3.913 -0.91906,-7.08076 -2.57349,-9.68941 -1.65552,-2.79502 -4.59767,-4.09929 -8.45884,-4.09929 h -7.17202 c -4.22877,0 -7.35479,2.04957 -9.19399,6.149 v -4.84473 z"
     style="font-style:normal;font-variant:normal;font-weight:normal;font-stretch:normal;font-size:medium;line-height:1.25;font-family:'Sturkopf Grotesk';-inkscape-font-specification:'Sturkopf Grotesk';letter-spacing:0px;word-spacing:0px;fill:#000000;fill-opacity:1;stroke:none;stroke-width:4.62759924"
     id="path879"
     inkscape:connector-curvature="0" />
  <path
     d="m 276.03636,802.41622 19.30723,97.6392 h 13.42301 l 19.30819,-97.6392 h -13.7917 l -12.32003,69.6884 -12.13617,-69.6884 z"
     style="font-style:normal;font-variant:normal;font-weight:normal;font-stretch:normal;font-size:medium;line-height:1.25;font-family:'Sturkopf Grotesk';-inkscape-font-specification:'Sturkopf Grotesk';letter-spacing:0px;word-spacing:0px;fill:#000000;fill-opacity:1;stroke:none;stroke-width:4.65882158"
     id="path881"
     inkscape:connector-curvature="0" />
  <path
     d="m 349.67162,802.41622 c -3.86117,0 -6.98724,1.28701 -9.74547,4.04499 -2.75847,2.75804 -4.04509,5.88387 -4.04509,9.74501 v 70.0536 c 0,3.8612 1.28662,6.987 4.04509,9.745 2.75823,2.758 5.8843,4.0451 9.74547,4.0451 h 13.60778 c 3.86122,0 6.98722,-1.2871 9.74551,-4.0451 2.75823,-2.758 4.04507,-5.8838 4.04507,-9.745 v -13.79 H 363.2794 v 9.7449 c 0,1.2871 -0.55523,2.2064 -1.28771,3.1258 -0.91924,0.9193 -2.02224,1.287 -3.30974,1.287 h -4.41287 c -1.28772,0 -2.39067,-0.3677 -3.3097,-1.287 -0.92016,-0.9194 -1.28776,-1.8387 -1.28776,-3.1258 v -24.8221 h 27.39836 v -41.1863 c 0,-3.86124 -1.28684,-6.98707 -4.04507,-9.74508 -2.75829,-2.75798 -5.88429,-4.04502 -9.74551,-4.04502 z m 4.59746,13.974 h 4.41287 c 1.2875,0 2.20679,0.5514 3.12582,1.4709 0.92017,0.9194 1.47163,1.8387 1.47163,3.1257 v 22.9834 h -13.60778 v -22.9834 c 0,-1.287 0.36404,-2.2063 1.28776,-3.1257 0.91903,-0.9193 2.02198,-1.4709 3.3097,-1.4709 z"
     style="font-style:normal;font-variant:normal;font-weight:normal;font-stretch:normal;font-size:medium;line-height:1.25;font-family:'Sturkopf Grotesk';-inkscape-font-specification:'Sturkopf Grotesk';letter-spacing:0px;word-spacing:0px;fill:#000000;fill-opacity:1;stroke:none;stroke-width:4.59686422"
     id="path883"
     inkscape:connector-curvature="0" />
  <path
     d="m 387.60649,803.72049 v 96.33493 h 13.79053 v -79.1921 c -0.18254,-0.9317 0.18253,-1.8634 0.91995,-2.795 0.91928,-1.118 2.0222,-1.677 3.49362,-1.677 h 4.59675 c 0.91907,0 2.02291,0.3725 2.94215,1.3043 0.91906,0.7451 1.47143,1.8634 1.47143,3.1677 v 79.1921 h 13.79078 v -83.8505 c 0,-3.913 -0.91928,-7.08076 -2.57456,-9.68941 -1.65443,-2.79502 -4.59657,-4.09929 -8.458,-4.09929 h -7.1718 c -4.22894,0 -7.35501,2.04957 -9.19417,6.149 v -4.84473 z"
     style="font-style:normal;font-variant:normal;font-weight:normal;font-stretch:normal;font-size:medium;line-height:1.25;font-family:'Sturkopf Grotesk';-inkscape-font-specification:'Sturkopf Grotesk';letter-spacing:0px;word-spacing:0px;fill:#000000;fill-opacity:1;stroke:none;stroke-width:4.62759924"
     id="path885"
     inkscape:connector-curvature="0" />
  <path
     d="m 474.5274,802.41622 v 97.6392 h 13.60776 v -97.6392 z"
     style="font-style:normal;font-variant:normal;font-weight:normal;font-stretch:normal;font-size:medium;line-height:1.25;font-family:'Sturkopf Grotesk';-inkscape-font-specification:'Sturkopf Grotesk';letter-spacing:0px;word-spacing:0px;fill:#000000;fill-opacity:1;stroke:none;stroke-width:4.62754297"
     id="path887"
     inkscape:connector-curvature="0"
     sodipodi:nodetypes="ccccc" />
  <path
     d="m 512.17995,802.41622 c -3.86121,0 -6.98725,1.28953 -9.74547,4.05287 -2.5746,2.57906 -3.86121,5.71095 -3.86121,9.21111 v 70.55722 c 0,3.5002 1.28661,6.8162 3.67729,9.5796 2.57455,2.7633 5.88429,4.2371 9.92939,4.2371 h 13.60778 c 3.86117,0 6.98721,-1.2895 9.74547,-4.0528 2.75844,-2.7634 4.04506,-5.8952 4.04506,-9.7639 v -70.55725 c 0,-3.50016 -1.28662,-6.44778 -3.86118,-9.21112 -2.39067,-2.76334 -5.70037,-4.05287 -9.92935,-4.05287 z m 4.59746,13.8167 h 4.59678 c 1.28751,0 2.20675,0.3683 3.12578,1.2895 0.92017,0.9211 1.28776,2.0265 1.28776,3.316 v 61.3461 c 0,1.2896 -0.364,2.2107 -1.28776,3.1318 -0.91903,0.9211 -1.83827,1.4737 -3.12578,1.4737 h -4.59678 c -1.10384,0 -2.2068,-0.5525 -3.12585,-1.4737 -0.92014,-0.9211 -1.28773,-1.8422 -1.28773,-3.1318 v -61.3461 c 0,-1.1054 0.36404,-2.2106 1.10384,-3.1317 0.91927,-0.9211 2.02223,-1.4738 3.30974,-1.4738 z"
     style="font-style:normal;font-variant:normal;font-weight:normal;font-stretch:normal;font-size:medium;line-height:1.25;font-family:'Sturkopf Grotesk';-inkscape-font-specification:'Sturkopf Grotesk';letter-spacing:0px;word-spacing:0px;fill:#000000;fill-opacity:1;stroke:none;stroke-width:4.60129929"
     id="path889"
     inkscape:connector-curvature="0" />
  <path
     d="m 550.29865,803.72049 v 96.33493 h 13.7906 v -79.1921 c -0.18254,-0.9317 0.18254,-1.8634 0.91906,-2.795 0.92013,-1.118 2.02305,-1.677 3.49466,-1.677 h 4.59657 c 0.9191,0 2.02287,0.3725 2.94215,1.3043 0.91903,0.7451 1.47139,1.8634 1.47139,3.1677 v 79.1921 h 13.79082 v -83.8505 c 0,-3.913 -0.91925,-7.08076 -2.57459,-9.68941 -1.65439,-2.79502 -4.59657,-4.09929 -8.45886,-4.09929 h -7.17091 c -4.22894,0 -7.35502,2.04957 -9.19421,6.149 v -4.84473 z"
     style="font-style:normal;font-variant:normal;font-weight:normal;font-stretch:normal;font-size:medium;line-height:1.25;font-family:'Sturkopf Grotesk';-inkscape-font-specification:'Sturkopf Grotesk';letter-spacing:0px;word-spacing:0px;fill:#000000;fill-opacity:1;stroke:none;stroke-width:4.62759924"
     id="path891"
     inkscape:connector-curvature="0" />
  <path
     sodipodi:nodetypes="ccccccccccccc"
     inkscape:connector-curvature="0"
     id="path893"
     style="font-style:normal;font-variant:normal;font-weight:normal;font-stretch:normal;font-size:medium;line-height:1.25;font-family:'Sturkopf Grotesk';-inkscape-font-specification:'Sturkopf Grotesk';letter-spacing:0px;word-spacing:0px;fill:#000000;fill-opacity:1;stroke:none;stroke-width:4.62881136"
     d="m 444.28777,900.05542 h 13.60689 v -60.3528 h 8.09105 v -13.4231 h -8.09105 v -23.8633 l -13.60689,8.01653 v 15.84677 h -6.80332 v 13.4231 h 6.80332 z" />
  <path
     d="m 181.38971,794.16917 c 8.30376,0 15.362,-2.28389 21.17462,-6.52533 6.22785,-4.56771 9.13416,-10.11428 9.13416,-16.63957 v -69.82101 c 0,-6.19908 -2.90631,-11.74557 -8.3038,-16.63959 -5.81264,-4.56767 -13.28604,-7.83043 -22.00498,-10.11428 l -22.42023,-5.54649 c -2.49114,-0.65258 -4.98227,-2.28388 -7.05824,-4.56773 -2.07596,-2.61015 -2.90631,-4.89396 -2.90631,-7.17789 v -52.20257 c 0,-2.28392 0.83035,-3.91519 2.90631,-5.54656 2.07597,-1.63131 4.15188,-2.28382 7.05824,-2.28382 h 9.96451 c 2.90635,0 4.9823,0.65251 7.05822,2.28382 2.07593,1.63137 2.90633,3.26268 2.90633,5.54656 v 16.96586 h 30.72399 v -25.44879 c 0,-6.85162 -2.90632,-12.39811 -8.71895,-16.96588 -6.22784,-4.5677 -13.28604,-6.85162 -21.58984,-6.85162 h -30.30881 c -8.71894,0 -15.77722,2.28392 -21.58988,6.85162 -5.81263,4.56773 -8.71894,10.11426 -8.71894,16.96588 v 68.51589 c 0,6.19908 2.90631,12.07186 8.30376,16.96589 5.8127,4.89399 13.28612,8.15664 22.00506,10.44052 l 22.42019,5.22028 c 2.90635,0.65255 4.98227,1.9576 7.05827,4.24144 2.07593,2.28389 2.90632,4.24149 2.90632,6.52534 v 53.83395 c 0,2.28385 -0.83039,4.24144 -2.90632,5.87279 -2.076,1.63133 -4.15192,2.28385 -7.05827,2.28385 h -9.96451 c -2.90631,0 -4.98227,-0.65252 -7.05824,-2.28385 -2.07592,-1.63135 -2.90631,-3.58898 -2.90631,-5.87279 v -16.96585 h -30.724 v 25.77507 c 0,6.52529 2.90632,12.07182 8.71898,16.63956 6.22784,4.24144 13.28604,6.52533 21.58984,6.52533 z"
     style="font-style:normal;font-variant:normal;font-weight:500;font-stretch:normal;font-size:144.65272522px;line-height:1.25;font-family:'Sturkopf Grotesk';-inkscape-font-specification:'Sturkopf Grotesk Medium';letter-spacing:0px;word-spacing:0px;fill:#000000;fill-opacity:1;stroke:none;stroke-width:1.91693747"
     id="path895"
     inkscape:connector-curvature="0" />
  <path
     d="m 253.72145,630.43467 c -8.68794,0 -15.72082,2.16272 -21.92636,6.79665 -5.79188,4.32514 -8.68798,9.57692 -8.68798,15.44651 v 118.32143 c 0,5.86981 2.8961,11.43061 8.27409,16.06454 5.79188,4.63397 13.23862,7.10547 22.34025,7.10547 h 30.61412 c 8.68794,0 15.72082,-2.16247 21.92636,-6.79668 6.20554,-4.63393 9.10162,-9.88567 9.10162,-16.37333 V 652.67783 c 0,-5.86955 -2.89608,-10.81255 -8.68796,-15.44651 -5.378,-4.63393 -12.82474,-6.79665 -22.34002,-6.79665 z m 10.34258,23.17 h 10.34261 c 2.89605,0 4.96456,0.61785 7.03306,2.16272 2.06853,1.54466 2.89587,3.39812 2.89587,5.56056 v 102.87484 c 0,2.16247 -0.82734,3.70712 -2.89587,5.25178 -2.0685,1.54466 -4.13701,2.4715 -7.03306,2.4715 h -10.34261 c -2.48215,0 -4.96455,-0.92681 -7.03305,-2.4715 -2.06854,-1.54466 -2.89584,-3.08931 -2.89584,-5.25178 V 661.32795 c 0,-1.8534 0.8273,-3.70712 2.48215,-5.25178 2.0685,-1.54461 4.55069,-2.4715 7.44674,-2.4715 z"
     style="font-style:normal;font-variant:normal;font-weight:500;font-stretch:normal;font-size:192px;line-height:1.25;font-family:'Sturkopf Grotesk';-inkscape-font-specification:'Sturkopf Grotesk Medium';letter-spacing:0px;word-spacing:0px;fill:#000000;fill-opacity:1;stroke:none;stroke-width:1.8619864"
     id="path897"
     inkscape:connector-curvature="0" />
  <path
     d="m 326.96491,634.45082 v 159.71845 h 31.02778 V 662.87285 c -0.41369,-1.5449 0.41389,-3.08934 2.06871,-4.63417 2.06854,-1.85345 4.55072,-2.78028 7.86043,-2.78028 h 10.34257 c 2.06854,0 4.55073,0.61777 6.61923,2.16243 2.0685,1.23587 3.30971,3.08931 3.30971,5.25202 v 131.29642 h 31.02777 v -139.0199 c 0,-6.48766 -2.06851,-11.7394 -5.79189,-16.06434 -3.72315,-4.63421 -10.34259,-6.79671 -19.03031,-6.79671 H 378.2644 c -9.51524,0 -16.54836,3.39834 -20.6854,10.19477 v -8.03227 z"
     style="font-style:normal;font-variant:normal;font-weight:500;font-stretch:normal;font-size:192px;line-height:1.25;font-family:'Sturkopf Grotesk';-inkscape-font-specification:'Sturkopf Grotesk Medium';letter-spacing:0px;word-spacing:0px;fill:#000000;fill-opacity:1;stroke:none;stroke-width:1.8619864"
     id="path899"
     inkscape:connector-curvature="0" />
  <path
     d="m 461.4368,630.43467 c -8.68794,0 -15.72079,2.16272 -21.92636,6.79665 -5.79214,4.32514 -8.68798,9.57692 -8.68798,15.44651 v 118.32143 c 0,5.86981 2.89584,11.43061 8.27408,16.06454 5.79189,4.63397 13.23866,7.10547 22.34026,7.10547 h 30.61412 c 8.68772,0 15.72082,-2.16247 21.92638,-6.79668 6.20555,-4.63393 9.1016,-9.88567 9.1016,-16.37333 V 652.67783 c 0,-5.86955 -2.89605,-10.81255 -8.68797,-15.44651 -5.378,-4.63393 -12.82474,-6.79665 -22.34001,-6.79665 z m 10.34257,23.17 h 10.34261 c 2.89585,0 4.96456,0.61785 7.0331,2.16272 2.0685,1.54466 2.89584,3.39812 2.89584,5.56056 v 102.87484 c 0,2.16247 -0.82734,3.70712 -2.89584,5.25178 -2.06854,1.54466 -4.13725,2.4715 -7.0331,2.4715 h -10.34261 c -2.48214,0 -4.96455,-0.92681 -7.03305,-2.4715 -2.06854,-1.54466 -2.89583,-3.08931 -2.89583,-5.25178 V 661.32795 c 0,-1.8534 0.82729,-3.70712 2.48214,-5.25178 2.06854,-1.54461 4.55073,-2.4715 7.44674,-2.4715 z"
     style="font-style:normal;font-variant:normal;font-weight:500;font-stretch:normal;font-size:192px;line-height:1.25;font-family:'Sturkopf Grotesk';-inkscape-font-specification:'Sturkopf Grotesk Medium';letter-spacing:0px;word-spacing:0px;fill:#000000;fill-opacity:1;stroke:none;stroke-width:1.8619864"
     id="path901"
     inkscape:connector-curvature="0" />
  <path
     d="M 586.37269,779.32075 V 630.24169 h -31.01548 v 144.7234 c 0,1.38592 -0.8271,2.37576 -2.89475,3.36582 -2.06761,0.98984 -4.13547,1.3857 -7.03017,1.3857 h -10.75203 v 14.45266 h 18.6093 c 21.91769,0 33.08313,-4.94942 33.08313,-14.84852 z"
     style="font-style:normal;font-variant:normal;font-weight:normal;font-stretch:normal;font-size:medium;line-height:1.25;font-family:'Sturkopf Grotesk';-inkscape-font-specification:'Sturkopf Grotesk';letter-spacing:0px;word-spacing:0px;fill:#010000;fill-opacity:1;stroke:none;stroke-width:7.15336132"
     id="path903"
     inkscape:connector-curvature="0" />
  <path
     sodipodi:nodetypes="ccccc"
     inkscape:connector-curvature="0"
     id="path905"
     style="font-style:normal;font-variant:normal;font-weight:normal;font-stretch:normal;font-size:50.79999924px;line-height:1.25;font-family:'Sturkopf Grotesk';-inkscape-font-specification:'Sturkopf Grotesk';letter-spacing:0px;word-spacing:0px;fill:#000000;fill-opacity:1;stroke:none;stroke-width:2.18314099"
     d="m 555.35464,572.634 v 31.01807 h 31.01805 V 572.634 Z" />
  <path
     style="color:#000000;font-style:normal;font-variant:normal;font-weight:normal;font-stretch:normal;font-size:50.79999924px;line-height:1.25;font-family:'Sturkopf Grotesk';-inkscape-font-specification:'Sturkopf Grotesk';font-variant-ligatures:normal;font-variant-position:normal;font-variant-caps:normal;font-variant-numeric:normal;font-variant-alternates:normal;font-feature-settings:normal;text-indent:0;text-align:start;text-decoration:none;text-decoration-line:none;text-decoration-style:solid;text-decoration-color:#000000;letter-spacing:0px;word-spacing:0px;text-transform:none;writing-mode:lr-tb;direction:ltr;text-orientation:mixed;dominant-baseline:auto;baseline-shift:baseline;text-anchor:start;white-space:normal;shape-padding:0;clip-rule:nonzero;display:inline;overflow:visible;visibility:visible;opacity:1;isolation:auto;mix-blend-mode:normal;color-interpolation:sRGB;color-interpolation-filters:linearRGB;solid-color:#000000;solid-opacity:1;vector-effect:none;fill:#000000;fill-opacity:1;fill-rule:nonzero;stroke:none;stroke-width:9.64835358;stroke-linecap:square;stroke-linejoin:miter;stroke-miterlimit:4;stroke-dasharray:none;stroke-dashoffset:0;stroke-opacity:1;color-rendering:auto;image-rendering:auto;shape-rendering:auto;text-rendering:auto;enable-background:accumulate"
     d="m 348.03067,59.536311 -1.35589,2.58789 -15.25616,29.23382 v 77.563249 h 47.16311 V 59.536251 Z M 331.41862,232.95032 c 0,113.28346 0,223.79861 0,337.08207 h 27.28907 l 19.87404,-38.05902 V 232.95032 Z"
     id="path909"
     inkscape:connector-curvature="0"
     sodipodi:nodetypes="ccccccccccccc" />
  <path
     style="color:#000000;font-style:normal;font-variant:normal;font-weight:normal;font-stretch:normal;font-size:medium;line-height:normal;font-family:sans-serif;font-variant-ligatures:normal;font-variant-position:normal;font-variant-caps:normal;font-variant-numeric:normal;font-variant-alternates:normal;font-feature-settings:normal;text-indent:0;text-align:start;text-decoration:none;text-decoration-line:none;text-decoration-style:solid;text-decoration-color:#000000;letter-spacing:normal;word-spacing:normal;text-transform:none;writing-mode:lr-tb;direction:ltr;text-orientation:mixed;dominant-baseline:auto;baseline-shift:baseline;text-anchor:start;white-space:normal;shape-padding:0;clip-rule:nonzero;display:inline;overflow:visible;visibility:visible;opacity:1;isolation:auto;mix-blend-mode:normal;color-interpolation:sRGB;color-interpolation-filters:linearRGB;solid-color:#000000;solid-opacity:1;vector-effect:none;fill:#000000;fill-opacity:1;fill-rule:nonzero;stroke:none;stroke-width:29.02736855;stroke-linecap:butt;stroke-linejoin:round;stroke-miterlimit:4;stroke-dasharray:none;stroke-dashoffset:0;stroke-opacity:1;paint-order:normal;color-rendering:auto;image-rendering:auto;shape-rendering:auto;text-rendering:auto;enable-background:accumulate"
     d="m 313.37696,175.89829 a 14.515136,14.515136 0 0 0 -14.51229,14.51241 v 21.05173 a 14.515136,14.515136 0 0 0 14.51229,14.52005 h 83.24641 a 14.515136,14.515136 0 0 0 14.51229,-14.52005 V 190.4107 a 14.515136,14.515136 0 0 0 -14.51229,-14.51241 z"
     id="path911-0"
     inkscape:connector-curvature="0" />
  <path
     style="color:#000000;font-style:normal;font-variant:normal;font-weight:normal;font-stretch:normal;font-size:50.79999924px;line-height:1.25;font-family:'Sturkopf Grotesk';-inkscape-font-specification:'Sturkopf Grotesk';font-variant-ligatures:normal;font-variant-position:normal;font-variant-caps:normal;font-variant-numeric:normal;font-variant-alternates:normal;font-feature-settings:normal;text-indent:0;text-align:start;text-decoration:none;text-decoration-line:none;text-decoration-style:solid;text-decoration-color:#000000;letter-spacing:0px;word-spacing:0px;text-transform:none;writing-mode:lr-tb;direction:ltr;text-orientation:mixed;dominant-baseline:auto;baseline-shift:baseline;text-anchor:start;white-space:normal;shape-padding:0;clip-rule:nonzero;display:inline;overflow:visible;visibility:visible;opacity:1;isolation:auto;mix-blend-mode:normal;color-interpolation:sRGB;color-interpolation-filters:linearRGB;solid-color:#000000;solid-opacity:1;vector-effect:none;fill:#000000;fill-opacity:1;fill-rule:nonzero;stroke:none;stroke-width:8.78009319;stroke-linecap:square;stroke-linejoin:miter;stroke-miterlimit:4;stroke-dasharray:none;stroke-dashoffset:0;stroke-opacity:1;color-rendering:auto;image-rendering:auto;shape-rendering:auto;text-rendering:auto;enable-background:accumulate"
     d="m 236.00763,107.74545 -1.23196,2.35548 -14.90746,28.55199 v 135.34263 h 47.17087 v -166.2501 z m -16.13942,230.12413 c 0,62.24365 0,121.71774 0,183.96136 h 28.14908 l 19.02179,-36.43959 V 337.86958 Z"
     id="path907"
     inkscape:connector-curvature="0"
     sodipodi:nodetypes="ccccccccccccc" />
  <path
     style="color:#000000;font-style:normal;font-variant:normal;font-weight:normal;font-stretch:normal;font-size:medium;line-height:normal;font-family:sans-serif;font-variant-ligatures:normal;font-variant-position:normal;font-variant-caps:normal;font-variant-numeric:normal;font-variant-alternates:normal;font-feature-settings:normal;text-indent:0;text-align:start;text-decoration:none;text-decoration-line:none;text-decoration-style:solid;text-decoration-color:#000000;letter-spacing:normal;word-spacing:normal;text-transform:none;writing-mode:lr-tb;direction:ltr;text-orientation:mixed;dominant-baseline:auto;baseline-shift:baseline;text-anchor:start;white-space:normal;shape-padding:0;clip-rule:nonzero;display:inline;overflow:visible;visibility:visible;opacity:1;isolation:auto;mix-blend-mode:normal;color-interpolation:sRGB;color-interpolation-filters:linearRGB;solid-color:#000000;solid-opacity:1;vector-effect:none;fill:#000000;fill-opacity:1;fill-rule:nonzero;stroke:none;stroke-width:29.02736855;stroke-linecap:butt;stroke-linejoin:round;stroke-miterlimit:4;stroke-dasharray:none;stroke-dashoffset:0;stroke-opacity:1;paint-order:normal;color-rendering:auto;image-rendering:auto;shape-rendering:auto;text-rendering:auto;enable-background:accumulate"
     d="m 201.83045,280.88611 a 14.515136,14.515136 0 0 0 -14.51235,14.52004 v 21.0518 a 14.515136,14.515136 0 0 0 14.51235,14.51234 h 83.24633 a 14.515136,14.515136 0 0 0 14.51235,-14.51234 v -21.0518 a 14.515136,14.515136 0 0 0 -14.51235,-14.52004 z"
     id="path913-8"
     inkscape:connector-curvature="0" />
  <path
     style="color:#000000;font-style:normal;font-variant:normal;font-weight:normal;font-stretch:normal;font-size:50.79999924px;line-height:1.25;font-family:'Sturkopf Grotesk';-inkscape-font-specification:'Sturkopf Grotesk';font-variant-ligatures:normal;font-variant-position:normal;font-variant-caps:normal;font-variant-numeric:normal;font-variant-alternates:normal;font-feature-settings:normal;text-indent:0;text-align:start;text-decoration:none;text-decoration-line:none;text-decoration-style:solid;text-decoration-color:#000000;letter-spacing:0px;word-spacing:0px;text-transform:none;writing-mode:lr-tb;direction:ltr;text-orientation:mixed;dominant-baseline:auto;baseline-shift:baseline;text-anchor:start;white-space:normal;shape-padding:0;clip-rule:nonzero;display:inline;overflow:visible;visibility:visible;opacity:1;isolation:auto;mix-blend-mode:normal;color-interpolation:sRGB;color-interpolation-filters:linearRGB;solid-color:#000000;solid-opacity:1;vector-effect:none;fill:#000000;fill-opacity:1;fill-rule:nonzero;stroke:none;stroke-width:8.78009319;stroke-linecap:square;stroke-linejoin:miter;stroke-miterlimit:4;stroke-dasharray:none;stroke-dashoffset:0;stroke-opacity:1;color-rendering:auto;image-rendering:auto;shape-rendering:auto;text-rendering:auto;enable-background:accumulate"
     d="m 461.2854,107.74544 -1.23196,2.35547 -17.09246,32.73592 v 177.35885 h 47.17088 V 107.74539 Z m -18.32442,276.28549 c 0,46.85582 0,90.94427 0,137.80004 h 29.24934 l 17.92154,-34.32442 V 384.03093 Z"
     id="path915"
     inkscape:connector-curvature="0"
     sodipodi:nodetypes="ccccccccccccc" />
  <path
     style="color:#000000;font-style:normal;font-variant:normal;font-weight:normal;font-stretch:normal;font-size:medium;line-height:normal;font-family:sans-serif;font-variant-ligatures:normal;font-variant-position:normal;font-variant-caps:normal;font-variant-numeric:normal;font-variant-alternates:normal;font-feature-settings:normal;text-indent:0;text-align:start;text-decoration:none;text-decoration-line:none;text-decoration-style:solid;text-decoration-color:#000000;letter-spacing:normal;word-spacing:normal;text-transform:none;writing-mode:lr-tb;direction:ltr;text-orientation:mixed;dominant-baseline:auto;baseline-shift:baseline;text-anchor:start;white-space:normal;shape-padding:0;clip-rule:nonzero;display:inline;overflow:visible;visibility:visible;opacity:1;isolation:auto;mix-blend-mode:normal;color-interpolation:sRGB;color-interpolation-filters:linearRGB;solid-color:#000000;solid-opacity:1;vector-effect:none;fill:#000000;fill-opacity:1;fill-rule:nonzero;stroke:none;stroke-width:29.02736855;stroke-linecap:butt;stroke-linejoin:round;stroke-miterlimit:4;stroke-dasharray:none;stroke-dashoffset:0;stroke-opacity:1;paint-order:normal;color-rendering:auto;image-rendering:auto;shape-rendering:auto;text-rendering:auto;enable-background:accumulate"
     d="m 424.92324,327.07293 a 14.515136,14.515136 0 0 0 -14.51233,14.52004 v 21.05174 a 14.515136,14.515136 0 0 0 14.51233,14.5124 h 83.24632 a 14.515136,14.515136 0 0 0 14.51235,-14.5124 v -21.05174 a 14.515136,14.515136 0 0 0 -14.51235,-14.52004 z"
     id="path917"
     inkscape:connector-curvature="0" />
  <path
     inkscape:connector-curvature="0"
     id="path1183"
     d="m 641.92357,5.0000001 v 4.2016 H 68.063486 v -4.2016 z"
     style="fill:#000000;fill-opacity:1;stroke-width:2.96747518" />
  <path
     inkscape:connector-curvature="0"
     id="path1185"
     d="M 641.92357,13.4823 V 26.466101 H 68.061859 V 13.4823 Z"
     style="fill:#000000;fill-opacity:1;stroke-width:5.2165308" />
  <path
     inkscape:connector-curvature="0"
     id="path1187"
     d="m 641.92357,30.778601 v 4.27658 H 68.062673 v -4.27658 z"
     style="fill:#000000;fill-opacity:1;stroke-width:2.99384403" />
  <path
     inkscape:connector-curvature="0"
     id="path1189"
     d="m 641.92357,5.0000001 v 4.2016 H 68.063486 v -4.2016 z"
     style="fill:#000000;fill-opacity:1;stroke-width:2.96747518" />
  <path
     inkscape:connector-curvature="0"
     id="path1191"
     d="M 641.92357,13.4823 V 26.466101 H 68.061859 V 13.4823 Z"
     style="fill:#000000;fill-opacity:1;stroke-width:5.2165308" />
  <path
     inkscape:connector-curvature="0"
     id="path1193"
     d="m 641.92357,30.778601 v 4.27658 H 68.062673 v -4.27658 z"
     style="fill:#000000;fill-opacity:1;stroke-width:2.99384403" />
  <path
     inkscape:connector-curvature="0"
     id="path1195"
     d="m 641.92357,5.0000001 v 4.2016 H 68.063486 v -4.2016 z"
     style="fill:#000000;fill-opacity:1;stroke-width:2.96747518" />
  <path
     inkscape:connector-curvature="0"
     id="path1197"
     d="M 641.92357,13.4823 V 26.466101 H 68.061859 V 13.4823 Z"
     style="fill:#000000;fill-opacity:1;stroke-width:5.2165308" />
  <path
     inkscape:connector-curvature="0"
     id="path1199"
     d="m 641.92357,30.778601 v 4.27658 H 68.062673 v -4.27658 z"
     style="fill:#000000;fill-opacity:1;stroke-width:2.99384403" />
  <path
     inkscape:connector-curvature="0"
     id="path1223"
     d="m 674.94485,68.037951 h 4.20158 V 941.83852 h -4.20158 z"
     style="fill:#000000;fill-opacity:1;stroke-width:3.66176295" />
  <path
     inkscape:connector-curvature="0"
     id="path1225"
     d="m 683.42709,68.037951 h 12.98378 V 941.84102 h -12.98378 z"
     style="fill:#000000;fill-opacity:1;stroke-width:6.4370203" />
  <path
     inkscape:connector-curvature="0"
     id="path1227"
     d="m 700.72347,68.037951 h 4.27658 V 941.83982 h -4.27658 z"
     style="fill:#000000;fill-opacity:1;stroke-width:3.69430137" />
  <path
     inkscape:connector-curvature="0"
     id="path1229"
     d="m 674.94485,68.037951 h 4.20158 V 941.83852 h -4.20158 z"
     style="fill:#000000;fill-opacity:1;stroke-width:3.66176295" />
  <path
     inkscape:connector-curvature="0"
     id="path1231"
     d="m 683.42709,68.037951 h 12.98378 V 941.84102 h -12.98378 z"
     style="fill:#000000;fill-opacity:1;stroke-width:6.4370203" />
  <path
     inkscape:connector-curvature="0"
     id="path1233"
     d="m 700.72347,68.037951 h 4.27658 V 941.83982 h -4.27658 z"
     style="fill:#000000;fill-opacity:1;stroke-width:3.69430137" />
  <path
     inkscape:connector-curvature="0"
     id="path1235"
     d="m 674.94485,68.037951 h 4.20158 V 941.83852 h -4.20158 z"
     style="fill:#000000;fill-opacity:1;stroke-width:3.66176295" />
  <path
     inkscape:connector-curvature="0"
     id="path1237"
     d="m 683.42709,68.037951 h 12.98378 V 941.84102 h -12.98378 z"
     style="fill:#000000;fill-opacity:1;stroke-width:6.4370203" />
  <path
     inkscape:connector-curvature="0"
     id="path1239"
     d="m 700.72347,68.037951 h 4.27658 V 941.83982 h -4.27658 z"
     style="fill:#000000;fill-opacity:1;stroke-width:3.69430137" />
</svg>
