<?xml version="1.0" standalone="no"?>
<!DOCTYPE svg PUBLIC "-//W3C//DTD SVG 20010904//EN"
 "http://www.w3.org/TR/2001/REC-SVG-20010904/DTD/svg10.dtd">
<svg version="1.0" xmlns="http://www.w3.org/2000/svg"
 width="300.000000pt" height="300.000000pt" viewBox="0 0 300.000000 300.000000"
 preserveAspectRatio="xMidYMid meet">
<metadata>
Created by potrace 1.11, written by Peter Selinger 2001-2013
</metadata>
<g transform="translate(0.000000,300.000000) scale(0.100000,-0.100000)"
fill="#000000" stroke="none">
<path d="M1461 2885 c-5 -5 -27 -44 -50 -87 l-41 -76 0 -214 0 -213 118 1 c64
1 123 2 130 3 10 1 12 64 10 298 l-3 297 -78 1 c-43 0 -82 -4 -86 -10z"/>
<path d="M841 2613 c-5 -10 -25 -48 -44 -85 l-35 -67 1 -368 2 -368 128 -1
127 -1 0 454 0 453 -85 0 c-70 0 -86 -3 -94 -17z"/>
<path d="M2058 2588 c-13 -24 -36 -66 -51 -94 l-27 -52 0 -486 0 -486 129 0
129 0 0 580 0 580 -78 0 -78 0 -24 -42z"/>
<path d="M1221 2232 c-27 -27 -29 -32 -27 -115 2 -76 5 -90 24 -110 22 -21 27
-22 282 -22 256 0 260 0 282 23 20 20 23 32 23 112 0 80 -2 92 -23 112 -22 23
-27 23 -278 26 l-255 3 -28 -29z"/>
<path d="M1372 1027 l3 -921 68 -1 c37 0 71 2 75 5 5 3 24 37 44 75 20 39 43
84 52 100 14 27 16 122 16 845 l0 816 -130 1 -130 1 2 -921z"/>
<path d="M619 1668 c-16 -10 -30 -23 -30 -30 -5 -55 -4 -149 3 -175 13 -48 41
-53 313 -53 l242 0 24 26 c21 22 24 36 25 107 3 143 6 141 -305 142 -215 0
-247 -2 -272 -17z"/>
<path d="M1903 1430 c-86 -7 -98 -21 -99 -116 -2 -161 -13 -155 309 -154 l252
0 24 25 c22 21 25 34 26 102 2 87 -7 115 -40 133 -24 13 -350 20 -472 10z"/>
<path d="M770 1370 c-4 -3 -8 -229 -8 -502 l0 -498 77 0 77 0 52 99 52 100 0
400 c0 314 -3 401 -12 402 -43 4 -231 3 -238 -1z"/>
<path d="M2003 1122 l-23 -3 0 -375 0 -375 81 3 82 3 47 90 48 90 0 283 c0
255 -2 282 -17 283 -80 3 -200 3 -218 1z"/>
</g>
</svg>
